{
  "Keystone": "ENCHANTING_TABLE",
  "KeystoneLocation": "2,1,2",
  "KeystoneLocations": [],
  "Layers": [
    {
      "Blocks": [
        [
          "POLISHED_ANDESITE",
          "STONE",
          "STONE_BRICKS",
          "STONE",
          "POLISHED_ANDESITE"
        ],
        [
          "STONE",
          "STONE",
          "STONE_BRICKS",
          "STONE",
          "STONE"
        ],
        [
          "STONE_BRICKS",
          "STONE_BRICKS",
          "STONE_BRICKS",
          "STONE_BRICKS",
          "STONE_BRICKS"
        ],
        [
          "STONE",
          "STONE",
          "STONE_BRICKS",
          "STONE",
          "STONE"
        ],
        [
          "POLISHED_ANDESITE",
          "STONE",
          "STONE_BRICKS",
          "STONE",
          "POLISHED_ANDESITE"
        ]
      ]
    },
    {
      "Blocks": [
        [
          "BOOKSHELF",
          "",
          "",
          "",
          "BOOKSHELF"
        ],
        [
          "",
          "",
          "",
          "",
          ""
        ],
        [
          "",
          "",
          "ENCHANTING_TABLE",
          "",
          ""
        ],
        [
          "",
          "",
          "",
          "",
          ""
        ],
        [
          "BOOKSHELF",
          "",
          "",
          "",
          "BOOKSHELF"
        ]
      ]
    },
    {
      "Blocks": [
        [
          "BOOKSHELF",
          "",
          "",
          "",
          "BOOKSHELF"
        ],
        [
          "",
          "",
          "",
          "",
          ""
        ],
        [
          "",
          "",
          "",
          "",
          ""
        ],
        [
          "",
          "",
          "",
          "",
          ""
        ],
        [
          "BOOKSHELF",
          "",
          "",
          "",
          "BOOKSHELF"
        ]
      ]
    }
  ]
}